Custom inference using SLiM or Python • demografr
…
And that’s it! Let’s check again that the whole setup works
correctly.

model_run <- simulate_model(python_script, parameters = list(Ne = 123), format = "files", data = gens)

When we look at the result, we can see that it no longer contains a
ts tree-sequence object but a simple table of genotypes
created via the slendr function ts_genotypes()
(see the data generating function just above).

model_run

#> $gt
#> # A tibble: 36 × 101
#>       pos pop_0_0_chr1 pop_0_0_chr2 pop_0_1_chr1 pop_0_1_chr2 pop_0_2_chr1
#>     <int>        <int>        <int>        <int>        <int>        <int>
#>  1 103287            0            1            0            0            0
#>  2 128034            0            0            0            0            0
#>  3 233957            0            0            0            0            0
#>  4 246328            0            0            0            0            0
#>  5 262794            0            0            0            0            0
#>  6 264014            0            1            0            0            0
#>  7 322579            0            0            0            0            0
#>  8 427789            1            0            1            1            1
#>  9 437497            0            0            1            0            0
#> 10 441459            0            0            0            0            0
#> # ℹ 26 more rows
#> # ℹ 95 more variables: pop_0_2_chr2 <int>, pop_0_3_chr1 <int>,
#> #   pop_0_3_chr2 <int>, pop_0_4_chr1 <int>, pop_0_4_chr2 <int>,
#> #   pop_0_5_chr1 <int>, pop_0_5_chr2 <int>, pop_0_6_chr1 <int>,
#> #   pop_0_6_chr2 <int>, pop_0_7_chr1 <int>, pop_0_7_chr2 <int>,
#> #   pop_0_8_chr1 <int>, pop_0_8_chr2 <int>, pop_0_9_chr1 <int>,
#> #   pop_0_9_chr2 <int>, pop_0_10_chr1 <int>, pop_0_10_chr2 <int>, …
…
