Parallelization options • demografr
…
In order to use future effectively, you should study its
documentation and tutorials (a good start would be the vignette here), but here is
a brief introduction focused on parallelizing a toy demografr
analysis set up above:

Sequential run

By default, if we would run simulate_grid(), all
simulations would be run sequentially:

data <- simulate_grid(model, grid, functions, replicates = 10, sequence_length = 10000, recombination_rate = 1e-8)

data

#> # A tibble: 90 × 4
#>      rep Ne_p1 Ne_p2 diversity       
#>    <int> <dbl> <dbl> <list>          
#>  1     1    10    10 <tibble [2 × 2]>
#>  2     1    10   100 <tibble [2 × 2]>
#>  3     1    10  1000 <tibble [2 × 2]>
#>  4     1   100    10 <tibble [2 × 2]>
#>  5     1   100   100 <tibble [2 × 2]>
#>  6     1   100  1000 <tibble [2 × 2]>
#>  7     1  1000    10 <tibble [2 × 2]>
#>  8     1  1000   100 <tibble [2 × 2]>
#>  9     1  1000  1000 <tibble [2 × 2]>
#> 10     2    10    10 <tibble [2 × 2]>
#> # ℹ 80 more rows
…
First we setup future:

library(future)
plan(multicore, workers = 10) # use 10 CPUs

Then we can run the simulations without having to do anything
else! This last point is important: demografr can
automatically leverage whatever parallelization scheme you set up via
future’s function plan().

data <- simulate_grid(model, grid, functions, replicates = 10, sequence_length = 100000, recombination_rate = 1e-8)

data

#> # A tibble: 90 × 4
#>      rep Ne_p1 Ne_p2 diversity       
#>    <int> <dbl> <dbl> <list>          
#>  1     1    10    10 <tibble [2 × 2]>
#>  2     1    10   100 <tibble [2 × 2]>
#>  3     1    10  1000 <tibble [2 × 2]>
#>  4     1   100    10 <tibble [2 × 2]>
#>  5     1   100   100 <tibble [2 × 2]>
#>  6     1   100  1000 <tibble [2 × 2]>
#>  7     1  1000    10 <tibble [2 × 2]>
#>  8     1  1000   100 <tibble [2 × 2]>
#>  9     1  1000  1000 <tibble [2 × 2]>
#> 10     2    10    10 <tibble [2 × 2]>
#> # ℹ 80 more rows
…
# on machine #2
simulate_grid(model, grid, functions, replicates = 5, sequence_length = 100000, recombination_rate = 1e-8, file = run2_file)

Then, once we collected the individual .rds files on a
single computer from the remote machines (perhaps using something like
the scp unix command), we can use another
demografr function combine_data() to merge all
individual runs into a single result:

data <- combine_data(run1_file, run2_file)

data

#> # A tibble: 90 × 4
#>      rep Ne_p1 Ne_p2 diversity       
#>    <int> <dbl> <dbl> <list>          
#>  1     1    10    10 <tibble [2 × 2]>
#>  2     1    10   100 <tibble [2 × 2]>
#>  3     1    10  1000 <tibble [2 × 2]>
#>  4     1   100    10 <tibble [2 × 2]>
#>  5     1   100   100 <tibble [2 × 2]>
#>  6     1   100  1000 <tibble [2 × 2]>
#>  7     1  1000    10 <tibble [2 × 2]>
#>  8     1  1000   100 <tibble [2 × 2]>
#>  9     1  1000  1000 <tibble [2 × 2]>
#> 10     2    10    10 <tibble [2 × 2]>
#> # ℹ 80 more rows
…
