Support for grid simulations • demografr
…
# bind both functions in a named list
functions <- list(direct = direct, indirect = indirect)

This looks quite neat and tidy, but how can we make sure that our tree-sequence summary functions really work? We need a tree-sequence object as an input first! demografr provides an easy way to get an arbitrary tree sequence from a model function via its helper function simulate_ts. The simples way to use it is like this:

# we don't care about the parameter values, as we only want to get *some* tree sequence
# (also, note we did not specify sequence length, recombination rate, etc.)
ts <- simulate_ts(model, parameters = list(rate_ea = 0.1, rate_aa = 0.15), mutation_rate = 1e-8)

With the tiny tree sequence for testing, we can now check if our tree-sequence functions work as they’re supposed to:

functions$direct(ts)

#> # A tibble: 21 × 6
#>    X      A     B     C      O         alpha
#>    <chr>  <chr> <chr> <chr>  <chr>     <dbl>
#>  1 eur_1  nea_2 nea_1 afr1_1 chimp_1 0.00156
#>  2 eur_2  nea_2 nea_1 afr1_1 chimp_1 0      
#>  3 eur_3  nea_2 nea_1 afr1_1 chimp_1 0.434  
#>  4 eur_4  nea_2 nea_1 afr1_1 chimp_1 0.434  
#>  5 eur_5  nea_2 nea_1 afr1_1 chimp_1 0      
#>  6 eur_6  nea_2 nea_1 afr1_1 chimp_1 0.218  
#>  7 eur_7  nea_2 nea_1 afr1_1 chimp_1 0.00156
#>  8 eur_8  nea_2 nea_1 afr1_1 chimp_1 0.00156
#>  9 eur_9  nea_2 nea_1 afr1_1 chimp_1 0.00156
#> 10 eur_10 nea_2 nea_1 afr1_1 chimp_1 0.00156
#> # ℹ 11 more rows

functions$indirect(ts)

#> # A tibble: 21 × 6
#>    X      A      B      C     O          alpha
#>    <chr>  <chr>  <chr>  <chr> <chr>      <dbl>
#>  1 eur_1  afr1_1 afr2_1 nea_2 chimp_1  1.89   
#>  2 eur_2  afr1_1 afr2_1 nea_2 chimp_1  1.86   
#>  3 eur_3  afr1_1 afr2_1 nea_2 chimp_1 -0.00832
#>  4 eur_4  afr1_1 afr2_1 nea_2 chimp_1 -0.00832
#>  5 eur_5  afr1_1 afr2_1 nea_2 chimp_1  1.86   
#>  6 eur_6  afr1_1 afr2_1 nea_2 chimp_1  0.859  
#>  7 eur_7  afr1_1 afr2_1 nea_2 chimp_1  1.73   
#>  8 eur_8  afr1_1 afr2_1 nea_2 chimp_1  1.89   
#>  9 eur_9  afr1_1 afr2_1 nea_2 chimp_1  1.89   
#> 10 eur_10 afr1_1 afr2_1 nea_2 chimp_1  1.73   
#> # ℹ 11 more rows
…
results <- simulate_grid(
  model, grid, functions, replicates = 50,
  sequence_length = 25e6, mutation_rate = 1e-8, recombination_rate = 1e-8
)

The total runtime for the grid simulations was 0 hours 22 minutes 14 seconds parallelized across 96 CPUs.

5. Analyze results

The function simulate_grid() returns all results in a data frame object in the following format:

print(results, n = 10)

#> # A tibble: 6,050 × 5
#>      rep rate_aa rate_ea direct            indirect         
#>    <int>   <dbl>   <dbl> <list>            <list>           
#>  1     1       0   0     <tibble [21 × 6]> <tibble [21 × 6]>
#>  2     1       0   0.025 <tibble [21 × 6]> <tibble [21 × 6]>
#>  3     1       0   0.05  <tibble [21 × 6]> <tibble [21 × 6]>
#>  4     1       0   0.075 <tibble [21 × 6]> <tibble [21 × 6]>
#>  5     1       0   0.1   <tibble [21 × 6]> <tibble [21 × 6]>
#>  6     1       0   0.125 <tibble [21 × 6]> <tibble [21 × 6]>
#>  7     1       0   0.15  <tibble [21 × 6]> <tibble [21 × 6]>
#>  8     1       0   0.175 <tibble [21 × 6]> <tibble [21 × 6]>
#>  9     1       0   0.2   <tibble [21 × 6]> <tibble [21 × 6]>
#> 10     1       0   0.225 <tibble [21 × 6]> <tibble [21 × 6]>
#> # ℹ 6,040 more rows

The first column indicates a replicate number, the following few columns are the values of the parameter grid. Most important are the last columns, though, each named after a single summary statistics. For conciseness, these summary statistics are stored as so-called “list columns”—for each replicate and each parameter combination, these columns store the summary statistics as “nested” data frames like this:

results$direct[1:2]

#> [[1]]
#> # A tibble: 21 × 6
#>    X      A     B     C      O        alpha
#>    <chr>  <chr> <chr> <chr>  <chr>    <dbl>
#>  1 eur_1  nea_2 nea_1 afr1_1 chimp_1 0.0561
#>  2 eur_2  nea_2 nea_1 afr1_1 chimp_1 0.0603
#>  3 eur_3  nea_2 nea_1 afr1_1 chimp_1 0.0817
#>  4 eur_4  nea_2 nea_1 afr1_1 chimp_1 0.102 
#>  5 eur_5  nea_2 nea_1 afr1_1 chimp_1 0.0669
#>  6 eur_6  nea_2 nea_1 afr1_1 chimp_1 0.0773
#>  7 eur_7  nea_2 nea_1 afr1_1 chimp_1 0.0746
#>  8 eur_8  nea_2 nea_1 afr1_1 chimp_1 0.0674
#>  9 eur_9  nea_2 nea_1 afr1_1 chimp_1 0.0514
#> 10 eur_10 nea_2 nea_1 afr1_1 chimp_1 0.0441
#> # ℹ 11 more rows
#> 
#> [[2]]
#> # A tibble: 21 × 6
#>    X      A     B     C      O         alpha
#>    <chr>  <chr> <chr> <chr>  <chr>     <dbl>
#>  1 eur_1  nea_2 nea_1 afr1_1 chimp_1 0.0106 
#>  2 eur_2  nea_2 nea_1 afr1_1 chimp_1 0.00153
#>  3 eur_3  nea_2 nea_1 afr1_1 chimp_1 0.00617
#>  4 eur_4  nea_2 nea_1 afr1_1 chimp_1 0.0250 
#>  5 eur_5  nea_2 nea_1 afr1_1 chimp_1 0.0111 
#>  6 eur_6  nea_2 nea_1 afr1_1 chimp_1 0.00780
#>  7 eur_7  nea_2 nea_1 afr1_1 chimp_1 0.0189 
#>  8 eur_8  nea_2 nea_1 afr1_1 chimp_1 0.0143 
#>  9 eur_9  nea_2 nea_1 afr1_1 chimp_1 0.0129 
#> 10 eur_10 nea_2 nea_1 afr1_1 chimp_1 0.00678
#> # ℹ 11 more rows

List columns are very efficient and concise for storing complex data like this, but in order to be able to analyze data stored in them, we need a function unnest() from tidyverse, which “explodes” a list-column with stored data frames into a wider data frame which can be immediately analyzed. In this example:

Direct f4-ratio:

results %>% unnest(direct)

#> # A tibble: 127,050 × 10
#>      rep rate_aa rate_ea X      A     B     C      O        alpha indirect
#>    <int>   <dbl>   <dbl> <chr>  <chr> <chr> <chr>  <chr>    <dbl> <list>  
#>  1     1       0       0 eur_1  nea_2 nea_1 afr1_1 chimp_1 0.0561 <tibble>
#>  2     1       0       0 eur_2  nea_2 nea_1 afr1_1 chimp_1 0.0603 <tibble>
#>  3     1       0       0 eur_3  nea_2 nea_1 afr1_1 chimp_1 0.0817 <tibble>
#>  4     1       0       0 eur_4  nea_2 nea_1 afr1_1 chimp_1 0.102  <tibble>
#>  5     1       0       0 eur_5  nea_2 nea_1 afr1_1 chimp_1 0.0669 <tibble>
#>  6     1       0       0 eur_6  nea_2 nea_1 afr1_1 chimp_1 0.0773 <tibble>
#>  7     1       0       0 eur_7  nea_2 nea_1 afr1_1 chimp_1 0.0746 <tibble>
#>  8     1       0       0 eur_8  nea_2 nea_1 afr1_1 chimp_1 0.0674 <tibble>
#>  9     1       0       0 eur_9  nea_2 nea_1 afr1_1 chimp_1 0.0514 <tibble>
#> 10     1       0       0 eur_10 nea_2 nea_1 afr1_1 chimp_1 0.0441 <tibble>
#> # ℹ 127,040 more rows

Indirect f4-ratio:

results %>% unnest(indirect)

#> # A tibble: 127,050 × 10
#>      rep rate_aa rate_ea direct            X      A      B     C     O     alpha
#>    <int>   <dbl>   <dbl> <list>            <chr>  <chr>  <chr> <chr> <chr> <dbl>
#>  1     1       0       0 <tibble [21 × 6]> eur_1  afr1_1 afr2… nea_2 chim… 0.951
#>  2     1       0       0 <tibble [21 × 6]> eur_2  afr1_1 afr2… nea_2 chim… 0.965
#>  3     1       0       0 <tibble [21 × 6]> eur_3  afr1_1 afr2… nea_2 chim… 0.928
#>  4     1       0       0 <tibble [21 × 6]> eur_4  afr1_1 afr2… nea_2 chim… 0.889
#>  5     1       0       0 <tibble [21 × 6]> eur_5  afr1_1 afr2… nea_2 chim… 0.960
#>  6     1       0       0 <tibble [21 × 6]> eur_6  afr1_1 afr2… nea_2 chim… 0.943
#>  7     1       0       0 <tibble [21 × 6]> eur_7  afr1_1 afr2… nea_2 chim… 0.971
#>  8     1       0       0 <tibble [21 × 6]> eur_8  afr1_1 afr2… nea_2 chim… 0.942
#>  9     1       0       0 <tibble [21 × 6]> eur_9  afr1_1 afr2… nea_2 chim… 0.984
#> 10     1       0       0 <tibble [21 × 6]> eur_10 afr1_1 afr2… nea_2 chim… 0.951
#> # ℹ 127,040 more rows
…
