• demografr
…
If more customization or a more detailed analyses is needed, you can
also extract data from the posterior simulations themselves:

extract_prediction(predX, "diversity")

#> # A tibble: 4,000 × 12
#>      rep   T_1   T_2   T_3     gf  Ne_A  Ne_B  Ne_C  Ne_D summary  stat    value
#>    <int> <dbl> <dbl> <dbl>  <dbl> <dbl> <dbl> <dbl> <dbl> <chr>    <chr>   <dbl>
#>  1     1 2146. 5964. 7574. 0.0825  872.  517. 4464. 4286. diversi… dive… 3.04e-5
#>  2     1 2146. 5964. 7574. 0.0825  872.  517. 4464. 4286. diversi… dive… 1.88e-5
#>  3     1 2146. 5964. 7574. 0.0825  872.  517. 4464. 4286. diversi… dive… 7.73e-5
#>  4     1 2146. 5964. 7574. 0.0825  872.  517. 4464. 4286. diversi… dive… 7.59e-5
#>  5     1 2788. 6378. 9272. 0.566  2470. 1654. 3381.  415. diversi… dive… 9.30e-5
#>  6     1 2788. 6378. 9272. 0.566  2470. 1654. 3381.  415. diversi… dive… 6.98e-5
#>  7     1 2788. 6378. 9272. 0.566  2470. 1654. 3381.  415. diversi… dive… 1.14e-4
#>  8     1 2788. 6378. 9272. 0.566  2470. 1654. 3381.  415. diversi… dive… 5.02e-5
#>  9     1 3224. 4595. 9728. 0.216  1947.  592. 6057.  450. diversi… dive… 7.70e-5
#> 10     1 3224. 4595. 9728. 0.216  1947.  592. 6057.  450. diversi… dive… 2.06e-5
#> # ℹ 3,990 more rows
…
