Simulate values of summary statistics across a parameter grid — simulate_grid • demografr
…
# for easier data analysis, each statistic can be unnested
tidyr::unnest(data, diversity)
#> # A tibble: 40 × 13
#>      rep  Ne_A  Ne_B  Ne_C  Ne_D  T_AB  T_BC  T_CD gf_BC set    diversity
#>    <int> <dbl> <dbl> <dbl> <dbl> <dbl> <dbl> <dbl> <dbl> <chr>      <dbl>
#>  1     1  1000   100  5000  2000   100  4000  7000   0.1 A     0.0000440 
#>  2     1  1000   100  5000  2000   100  4000  7000   0.1 B     0.00000339
#>  3     1  1000   100  5000  2000   100  4000  7000   0.1 C     0.0000871 
#>  4     1  1000   100  5000  2000   100  4000  7000   0.1 D     0.0000789 
#>  5     1  3000   100  5000  2000   100  4000  7000   0.1 A     0.000133  
#>  6     1  3000   100  5000  2000   100  4000  7000   0.1 B     0.00000460
#>  7     1  3000   100  5000  2000   100  4000  7000   0.1 C     0.0000932 
#>  8     1  3000   100  5000  2000   100  4000  7000   0.1 D     0.0000705 
#>  9     1  1000  1500  5000  2000   100  4000  7000   0.1 A     0.0000460 
#> 10     1  1000  1500  5000  2000   100  4000  7000   0.1 B     0.0000503 
#> # ℹ 30 more rows
#> # ℹ 2 more variables: divergence <list>, f4 <list>
tidyr::unnest(data, divergence)
#> # A tibble: 60 × 14
#>      rep  Ne_A  Ne_B  Ne_C  Ne_D  T_AB  T_BC  T_CD gf_BC diversity x     y    
#>    <int> <dbl> <dbl> <dbl> <dbl> <dbl> <dbl> <dbl> <dbl> <list>    <chr> <chr>
#>  1     1  1000   100  5000  2000   100  4000  7000   0.1 <tibble>  A     B    
#>  2     1  1000   100  5000  2000   100  4000  7000   0.1 <tibble>  A     C    
#>  3     1  1000   100  5000  2000   100  4000  7000   0.1 <tibble>  A     D    
#>  4     1  1000   100  5000  2000   100  4000  7000   0.1 <tibble>  B     C    
#>  5     1  1000   100  5000  2000   100  4000  7000   0.1 <tibble>  B     D    
#>  6     1  1000   100  5000  2000   100  4000  7000   0.1 <tibble>  C     D    
#>  7     1  3000   100  5000  2000   100  4000  7000   0.1 <tibble>  A     B    
#>  8     1  3000   100  5000  2000   100  4000  7000   0.1 <tibble>  A     C    
#>  9     1  3000   100  5000  2000   100  4000  7000   0.1 <tibble>  A     D    
#> 10     1  3000   100  5000  2000   100  4000  7000   0.1 <tibble>  B     C    
#> # ℹ 50 more rows
#> # ℹ 2 more variables: divergence <dbl>, f4 <list>
…
